2025-1/cd/lab06/display/simulation/qsim/display.msim.vcd
$comment
	File created using the following command:
		vcd file display.msim.vcd -direction
$end
$date
	Thu May 15 21:50:45 2025
$end
$version
	ModelSim Version 10.1d
$end
$timescale
	1ps
$end
$scope module display_vlg_vec_tst $end
$var reg 4 ! A [3:0] $end
$var reg 4 " B [3:0] $end
$var reg 2 # op_sel [1:0] $end
$var wire 1 $ flag_N $end
$var wire 1 % flag_Z $end
$var wire 1 & S_A $end
$var wire 1 ' S_B $end
$var wire 1 ( S_C $end
$var wire 1 ) S_D $end
$var wire 1 * S_E $end
$var wire 1 + S_F $end
$var wire 1 , S_G $end
$var wire 1 - sampler $end
$scope module i1 $end
$var wire 1 . gnd $end
$var wire 1 / vcc $end
$var wire 1 0 unknown $end
$var tri1 1 1 devclrn $end
$var tri1 1 2 devpor $end
$var tri1 1 3 devoe $end
$var wire 1 4 S_A~output_o $end
$var wire 1 5 S_B~output_o $end
$var wire 1 6 S_C~output_o $end
$var wire 1 7 S_D~output_o $end
$var wire 1 8 S_E~output_o $end
$var wire 1 9 S_F~output_o $end
$var wire 1 : S_G~output_o $end
$var wire 1 ; flag_Z~output_o $end
$var wire 1 < flag_N~output_o $end
$var wire 1 = op_sel[0]~input_o $end
$var wire 1 > op_sel[1]~input_o $end
$var wire 1 ? B[0]~input_o $end
$var wire 1 @ A[0]~input_o $end
$var wire 1 A inst|inst2|inst4|inst|inst|inst2~0_combout $end
$var wire 1 B A[1]~input_o $end
$var wire 1 C B[1]~input_o $end
$var wire 1 D inst|inst2|inst4|inst|inst1|inst2~0_combout $end
$var wire 1 E inst|inst2|inst4|inst|inst1|inst2~1_combout $end
$var wire 1 F inst|inst2|inst4|inst|inst1|inst2~2_combout $end
$var wire 1 G B[2]~input_o $end
$var wire 1 H A[2]~input_o $end
$var wire 1 I A[3]~input_o $end
$var wire 1 J inst|inst|inst2|inst13~0_combout $end
$var wire 1 K inst|inst2|inst4|inst2|inst1|inst2~0_combout $end
$var wire 1 L B[3]~input_o $end
$var wire 1 M inst|inst2|inst4|inst2|inst1|inst2~1_combout $end
$var wire 1 N inst|inst2|inst4|inst2|inst1|inst2~2_combout $end
$var wire 1 O inst|inst2|inst4|inst2|inst|inst2~2_combout $end
$var wire 1 P inst|inst2|inst4|inst2|inst|inst2~3_combout $end
$var wire 1 Q inst2|inst4~combout $end
$var wire 1 R inst2|inst9~0_combout $end
$var wire 1 S inst2|inst15~0_combout $end
$var wire 1 T inst2|inst22~0_combout $end
$var wire 1 U inst2|inst26~0_combout $end
$var wire 1 V inst2|inst33~0_combout $end
$var wire 1 W inst2|inst29~0_combout $end
$var wire 1 X inst|inst3|inst~combout $end
$upscope $end
$upscope $end
$enddefinitions $end
#0
$dumpvars
b0 !
b0 "
b0 #
x$
x%
x&
x'
x(
x)
x*
x+
x,
x-
0.
1/
x0
11
12
13
x4
x5
x6
x7
x8
x9
x:
x;
x<
0=
0>
0?
0@
xA
0B
0C
xD
xE
xF
0G
0H
0I
xJ
xK
0L
xM
xN
xO
xP
xQ
xR
xS
xT
xU
xV
xW
xX
$end
#901
0E
#940
0J
#1183
0M
#1206
0A
#1224
0O
#1228
1K
#1484
0D
#1557
1P
#1910
1U
1R
#1915
1Q
#1921
1N
#1935
0F
#2412
1T
#2564
0X
#2617
1V
#2630
0W
#2634
1S
#4789
0<
0$
#5132
04
0&
#5332
08
0*
#5373
05
0'
#5417
1;
1%
#5795
06
0(
#5829
07
0)
#6042
09
0+
#6152
1:
1,
#62500
b1 "
0-
#63225
1?
#64257
1A
#64817
1X
#64881
0Q
#64882
0U
#64886
0V
#64893
0T
#67674
0;
0%
#68113
14
1&
#68282
18
1*
#68285
19
1+
#68286
17
1)
#125000
b1 !
b11 "
b10 "
1-
#125725
1@
1C
#125886
0?
#126358
1D
#126376
0A
#126638
1J
#126937
1A
#126939
0J
#127004
0X
#127059
1Q
#127061
1U
#127069
1V
#127082
1T
#127095
1F
#127497
1X
#127562
0U
#127566
0V
#127721
1W
#130276
04
0&
#130499
07
0)
#131228
0:
0,
#187500
b11 "
0-
#188225
1?
#189256
0A
#189258
1J
#189419
0F
#189835
0P
#189941
1U
#190048
0X
#190101
1V
#190221
0T
#190222
0U
#190227
0Q
#190237
1X
#193459
14
1&
#193526
09
0+
#193614
17
1)
#250000
b1 #
b11 !
b111 "
b10 !
b101 "
b100 "
1-
#250725
1B
1G
#250735
1=
#250886
0@
0C
0?
#251501
0D
#251527
0J
#251542
1A
#251656
1E
#251908
1M
#251911
0N
#251912
1P
#251940
0A
#252457
1T
#252459
1Q
#252625
1U
#252636
1N
#253126
0X
#253128
0W
#255676
04
0&
#255874
07
0)
#255979
1;
1%
#256047
08
0*
#256650
1:
1,
#312500
b101 "
0-
#313225
1?
#375000
b11 !
b111 "
b110 "
1-
#375725
1@
1C
#375886
0?
#376358
1D
#376383
1J
#376386
1A
#376686
0K
#376776
1F
#376936
0A
#376946
1X
#377010
0Q
#377011
0U
#377015
0V
#377022
0T
#377381
1Q
#377402
1W
#377415
1T
#377618
0S
#377621
1U
#379803
0;
0%
#380414
19
1+
#380762
16
1(
#380909
0:
0,
#437500
b111 "
0-
#438225
1?
#439257
1A
#439871
1S
#439882
0U
#443032
06
0(
#443282
18
1*
#500000
b11 #
b111 !
b1111 "
b10 #
b101 !
b1011 "
b100 !
b1001 "
b1000 "
1-
#500725
1H
#500735
1L
#500775
1>
#500886
0B
0@
0G
0C
0?
#500896
0=
#501501
0D
#501529
0M
#501532
0A
#501813
1O
#501826
0J
#501952
0F
#502110
0P
#502168
1K
#502214
0S
#502217
1U
#502257
0N
#502496
0T
#502497
0U
#502502
0Q
#502634
1V
#502798
1U
#502800
0R
#502803
1T
#502804
0W
#502805
1Q
#505136
1<
1$
#505358
16
1(
#506059
09
0+
#506220
08
0*
#506268
15
1'
#506326
1:
1,
#562500
b1001 "
0-
#563225
1?
#564257
1A
#564869
1R
#564871
1S
#564873
1W
#564881
0Q
#564886
0V
#568032
06
0(
#568113
14
1&
#568285
19
1+
#568332
05
0'
#568380
0:
0,
#625000
b101 !
b1011 "
b1010 "
1-
#625725
1@
1C
#625886
0?
#626358
1D
#626638
1J
#626776
1F
#626939
0J
#626941
0K
#627281
1K
#627381
1Q
#627400
1V
#627414
0T
#627415
0S
#627417
0R
#630559
16
1(
#630598
04
0&
#630807
17
1)
#630825
09
0+
#630885
15
1'
#687500
b1011 "
0-
#688225
1?
#689258
1J
#689561
0K
#750000
b11 #
b111 !
b1111 "
b110 !
b1101 "
b1100 "
1-
#750725
1B
1G
#750735
1=
#750886
0@
0C
0?
#751501
0D
#751527
0J
#751650
0O
#751952
0F
#751983
1P
#752336
1S
#752340
1T
#752591
0U
#752653
1R
#755497
06
0(
#755757
07
0)
#755991
18
1*
#756116
05
0'
#812500
b1101 "
0-
#813225
1?
#875000
b111 !
b1111 "
b1110 "
1-
#875725
1@
1C
#875886
0?
#876376
0A
#876383
1J
#877061
1U
#880483
08
0*
#937500
b1111 "
0-
#938225
1?
