2025-1/cd/lab04/mux2_8/simulation/qsim/mux2_8.msim.vcd
$comment
	File created using the following command:
		vcd file mux2_8.msim.vcd -direction
$end
$date
	Fri Apr 11 06:23:13 2025
$end
$version
	ModelSim Version 10.1d
$end
$timescale
	1ps
$end
$scope module mux2_8_vlg_vec_tst $end
$var reg 8 ! A [7:0] $end
$var reg 8 " B [7:0] $end
$var reg 1 # S0 $end
$var wire 1 $ Z [7] $end
$var wire 1 % Z [6] $end
$var wire 1 & Z [5] $end
$var wire 1 ' Z [4] $end
$var wire 1 ( Z [3] $end
$var wire 1 ) Z [2] $end
$var wire 1 * Z [1] $end
$var wire 1 + Z [0] $end
$var wire 1 , sampler $end
$scope module i1 $end
$var wire 1 - gnd $end
$var wire 1 . vcc $end
$var wire 1 / unknown $end
$var tri1 1 0 devclrn $end
$var tri1 1 1 devpor $end
$var tri1 1 2 devoe $end
$var wire 1 3 Z[7]~output_o $end
$var wire 1 4 Z[6]~output_o $end
$var wire 1 5 Z[5]~output_o $end
$var wire 1 6 Z[4]~output_o $end
$var wire 1 7 Z[3]~output_o $end
$var wire 1 8 Z[2]~output_o $end
$var wire 1 9 Z[1]~output_o $end
$var wire 1 : Z[0]~output_o $end
$var wire 1 ; B[7]~input_o $end
$var wire 1 < A[7]~input_o $end
$var wire 1 = S0~input_o $end
$var wire 1 > inst2|inst1|inst1|inst2~0_combout $end
$var wire 1 ? B[6]~input_o $end
$var wire 1 @ A[6]~input_o $end
$var wire 1 A inst2|inst1|inst|inst2~0_combout $end
$var wire 1 B B[5]~input_o $end
$var wire 1 C A[5]~input_o $end
$var wire 1 D inst2|inst|inst1|inst2~0_combout $end
$var wire 1 E A[4]~input_o $end
$var wire 1 F B[4]~input_o $end
$var wire 1 G inst2|inst|inst|inst2~0_combout $end
$var wire 1 H A[3]~input_o $end
$var wire 1 I B[3]~input_o $end
$var wire 1 J inst|inst1|inst1|inst2~0_combout $end
$var wire 1 K A[2]~input_o $end
$var wire 1 L B[2]~input_o $end
$var wire 1 M inst|inst1|inst|inst2~0_combout $end
$var wire 1 N A[1]~input_o $end
$var wire 1 O B[1]~input_o $end
$var wire 1 P inst|inst|inst1|inst2~0_combout $end
$var wire 1 Q A[0]~input_o $end
$var wire 1 R B[0]~input_o $end
$var wire 1 S inst|inst|inst|inst2~0_combout $end
$upscope $end
$upscope $end
$enddefinitions $end
#0
$dumpvars
b11111111 !
b0 "
0#
x+
x*
x)
x(
x'
x&
x%
x$
x,
0-
1.
x/
10
11
12
x3
x4
x5
x6
x7
x8
x9
x:
0;
1<
0=
x>
0?
1@
xA
0B
1C
xD
1E
0F
xG
1H
0I
xJ
1K
0L
xM
1N
0O
xP
1Q
0R
xS
$end
#1894
1J
#1899
1>
#1900
1A
#1901
1G
#2303
1M
#2393
1P
#2412
1D
#2415
1S
#4892
16
1'
#4904
17
1(
#4934
18
1)
#4951
15
1&
#5050
19
1*
#5062
1:
1+
#5121
13
1$
#5753
14
1%
#40000
b1111111 !
b111111 !
b11111 !
b1111 !
b1011 !
b1010 !
0,
#40832
0Q
#40842
0@
0C
0E
0K
#40852
0<
#41680
0>
#42240
0A
#42966
0G
#43335
0M
#43382
0S
#43474
0D
#44877
03
0$
#45928
06
0'
#45972
08
0)
#46024
0:
0+
#46031
05
0&
#46174
04
0%
#80000
b10 !
b0 !
b10000000 "
b10100000 "
b10110000 "
b10111000 "
b10111010 "
b10111011 "
1#
1,
#80670
1B
1I
#80680
1F
#80686
1=
1O
#80690
1R
#80700
1;
#80832
0H
#80842
0N
#82400
0J
#82413
1>
#82691
0P
#82799
1G
#82835
1J
#82917
1P
#83123
1S
#83168
1D
#85635
13
1$
#85707
15
1&
#85770
1:
1+
#85790
16
1'
#120000
b10111111 "
b111111 "
b11111 "
b1111 "
b1101 "
b1100 "
0,
#120690
1L
#120832
0B
#120842
0F
#120850
0O
#120852
0R
#120862
0;
#121832
0>
#123112
0G
#123155
1M
#123256
0P
#123474
0S
#123534
0D
#125029
03
0$
#125786
18
1)
#125924
09
0*
#126074
06
0'
#126091
05
0&
#126116
0:
0+
