2025-1/cd/lab03/sumsub/simulation/qsim/sumsub.msim.vcd
$comment
	File created using the following command:
		vcd file sumsub.msim.vcd -direction
$end
$date
	Mon Mar 31 15:44:26 2025
$end
$version
	ModelSim Version 10.1d
$end
$timescale
	1ps
$end
$scope module sumsub_vlg_vec_tst $end
$var reg 8 ! A [7:0] $end
$var reg 8 " B [7:0] $end
$var reg 1 # M $end
$var wire 1 $ Cout $end
$var wire 1 % S [7] $end
$var wire 1 & S [6] $end
$var wire 1 ' S [5] $end
$var wire 1 ( S [4] $end
$var wire 1 ) S [3] $end
$var wire 1 * S [2] $end
$var wire 1 + S [1] $end
$var wire 1 , S [0] $end
$var wire 1 - sampler $end
$scope module i1 $end
$var wire 1 . gnd $end
$var wire 1 / vcc $end
$var wire 1 0 unknown $end
$var tri1 1 1 devclrn $end
$var tri1 1 2 devpor $end
$var tri1 1 3 devoe $end
$var wire 1 4 Cout~output_o $end
$var wire 1 5 S[7]~output_o $end
$var wire 1 6 S[6]~output_o $end
$var wire 1 7 S[5]~output_o $end
$var wire 1 8 S[4]~output_o $end
$var wire 1 9 S[3]~output_o $end
$var wire 1 : S[2]~output_o $end
$var wire 1 ; S[1]~output_o $end
$var wire 1 < S[0]~output_o $end
$var wire 1 = A[7]~input_o $end
$var wire 1 > M~input_o $end
$var wire 1 ? B[7]~input_o $end
$var wire 1 @ A[6]~input_o $end
$var wire 1 A A[5]~input_o $end
$var wire 1 B B[5]~input_o $end
$var wire 1 C A[4]~input_o $end
$var wire 1 D B[4]~input_o $end
$var wire 1 E B[3]~input_o $end
$var wire 1 F A[3]~input_o $end
$var wire 1 G A[2]~input_o $end
$var wire 1 H B[0]~input_o $end
$var wire 1 I A[0]~input_o $end
$var wire 1 J fa1|inst4~combout $end
$var wire 1 K B[1]~input_o $end
$var wire 1 L inst5~combout $end
$var wire 1 M fa1|inst3~combout $end
$var wire 1 N A[1]~input_o $end
$var wire 1 O fa2|inst5~0_combout $end
$var wire 1 P B[2]~input_o $end
$var wire 1 Q fa3|inst5~0_combout $end
$var wire 1 R fa4|inst5~0_combout $end
$var wire 1 S fa5|inst5~0_combout $end
$var wire 1 T inst12|inst5~0_combout $end
$var wire 1 U B[6]~input_o $end
$var wire 1 V inst2|inst5~0_combout $end
$var wire 1 W inst3|inst5~0_combout $end
$var wire 1 X inst3|inst2~0_combout $end
$var wire 1 Y inst2|inst2~0_combout $end
$var wire 1 Z inst12|inst2~0_combout $end
$var wire 1 [ fa5|inst2~0_combout $end
$var wire 1 \ fa4|inst2~0_combout $end
$var wire 1 ] fa3|inst2~0_combout $end
$var wire 1 ^ fa2|inst2~combout $end
$var wire 1 _ fa1|inst2~0_combout $end
$upscope $end
$upscope $end
$enddefinitions $end
#0
$dumpvars
b110011 !
b0 "
0#
x$
x,
x+
x*
x)
x(
x'
x&
x%
x-
0.
1/
x0
11
12
13
x4
x5
x6
x7
x8
x9
x:
x;
x<
0=
0>
0?
0@
1A
0B
1C
0D
0E
0F
0G
0H
1I
xJ
0K
xL
xM
1N
xO
0P
xQ
xR
xS
xT
0U
xV
xW
xX
xY
xZ
x[
x\
x]
x^
x_
$end
#1063
0M
#1167
0L
#1466
0J
#1516
1_
#1554
0Q
#1935
0\
#2125
0R
#2182
0V
#2195
0O
#2507
0S
#2521
1[
#2560
0X
#2592
0W
#2607
1^
#2888
0T
#2902
1Z
#2926
0]
#3418
0Y
#4855
1<
1,
#4991
09
0)
#5411
05
0%
#5432
04
0$
#5582
1;
1+
#5619
18
1(
#6232
06
0&
#6330
17
1'
#6337
0:
0*
#40000
b10011 !
b11011 !
b11001 !
b11000 !
b10000 "
b11000 "
0-
#40799
1E
#40806
1F
#40809
1D
#40923
0I
#40924
0A
0N
#42270
1\
#42339
0_
#42722
1S
#42799
0^
#42909
0[
#42945
1R
#42967
0\
#43314
1[
#45570
0<
0,
#45767
0;
0+
#80000
b10011000 !
b11011000 !
b11011100 !
b11001 "
b11111100 !
b11111110 !
b11111111 !
b1001 "
b1 "
1-
#80796
1=
#80799
1G
#80809
1H
#80816
1@
1I
#80819
1A
1N
#80904
0E
#80914
0D
#82026
1J
#82172
1]
#82683
1Y
#82697
1O
#82769
1^
#83002
0[
#83028
1\
#83029
0R
#83195
0^
#83198
1Q
#83210
1T
#83246
0Z
#83285
1X
#83385
0]
#83411
0S
#83425
1[
#83551
0\
#83568
1R
#83705
0Y
#83714
1V
#83792
0T
#83806
1Z
#83921
0[
#83939
1S
#84066
0X
#84085
1W
#84292
0Z
#84308
1T
#84326
0V
#84328
1Y
#84707
0W
#84720
1X
#84803
0Y
#84812
1V
#85164
0X
#85183
1W
#86958
08
0(
#87694
07
0'
#88060
14
1$
#120000
b11101111 !
b10000001 "
b11000001 "
b11000011 "
b11100111 !
b10100111 !
b10100011 !
b11000010 "
b10100001 !
0-
#120796
1U
#120809
1?
#120816
1K
#120904
0C
0G
#120913
0F
#120914
0H
#120923
0@
#120924
0N
#122011
1L
#122111
0J
#122284
1]
#122312
0R
#122319
1\
#122353
1_
#122458
0Q
#122549
1[
#122692
0[
#122710
0V
#122713
1Y
#122727
0S
#122728
0O
#122839
0\
#122898
0Y
#122915
1V
#123075
1X
#123108
0T
#123122
1Z
#123252
1^
#123459
0]
#123642
0V
#123644
1Y
#124020
0X
#125692
1<
1,
#126227
1;
1+
#126497
16
1&
#126550
17
1'
#160000
b11100010 "
1#
b100001 !
b1 !
b0 !
b11101010 "
b10000 !
b1101010 "
b101010 "
b101000 "
b1010000 !
b101001 "
b1010010 !
1-
#160796
1B
#160799
1E
1C
#160809
1H
1>
#160816
1@
#160819
1N
#160903
0U
0=
#160914
0?
#160923
0K
0I
#160924
0A
#162318
0W
#162332
1\
1]
#162333
1X
#162622
1S
#162697
1O
#162753
0^
#162967
0\
#163086
0Y
#163101
1V
#163198
1Q
#163385
0]
#163453
0X
#163472
1W
#163567
1\
#165721
0;
0+
#165900
06
0&
#166693
19
1)
#200000
b1011010 !
b11011010 !
b11111010 !
b11111011 !
b11101011 !
b10101001 "
b10101011 "
b10101011 !
0-
#200796
1=
#200806
1F
#200809
1?
#200816
1I
1K
#200819
1A
#200904
0C
#200923
0@
#201895
1M
#202004
0L
#202264
0\
#202270
1R
#202316
0_
#202710
0V
#202713
1Y
#203091
0W
#203104
1X
#203210
1T
#203246
0Z
#203705
0Y
#203714
1V
#204066
0X
#204085
1W
#205320
09
0)
#205547
0<
0,
#206648
07
0'
#240000
b10101111 "
b10111111 "
b10101111 !
b10110111 "
b10101101 !
b10100101 !
b10000101 !
b10000100 !
b110111 "
b11000100 !
1-
#240799
1P
1G
#240809
1D
#240816
1@
#240904
0E
#240913
0F
#240914
0?
#240923
0I
#240924
0A
0N
#241950
0M
#242312
0R
#242319
1\
#242355
1_
#242492
0O
#242683
1Y
#242716
0S
#243013
1R
#243024
0Q
#243036
0\
#243153
1X
#243215
1]
#243291
0T
#243382
1[
#243405
0R
#243421
1\
#243785
0[
#243821
0Y
#245694
1<
1,
#246045
15
1%
#246547
19
1)
#246649
1:
1*
#280000
b110110 "
b1000100 !
b1010100 !
b110100 "
b110000 "
b100000 "
b1010000 !
b10000 !
0-
#280799
1C
#280903
0=
#280904
0P
0G
#280914
0D
0H
#280923
0K
0@
#282084
1L
#282111
1M
#282346
0_
#282472
1[
#282710
0V
#282713
1Y
#282746
1O
#282808
1S
#283002
0[
#283177
1Z
#283247
1Q
#283434
0]
#283495
0W
#283600
0\
#283617
1R
#283986
1[
#285566
16
1&
#285577
0<
0,
#286335
04
0$
#286605
17
1'
#286656
09
0)
#286845
0:
0*
#287084
18
1(
#320000
b0x00000 "
x#
b0xx00000 "
b0xx0x000 "
b100x0 !
b1x0x0 !
b0x1x0x0 !
b0x1x0xx !
bx0x000 "
bx0x00x "
bx0x1x0xx !
bx0xxx0xx !
bx0x0xx "
bx0xxxx "
bx "
bx0xxxxxx !
bx !
1-
#320796
xU
x=
#320799
xE
xP
xG
#320806
xF
#320809
x?
xD
xH
#320816
xK
x@
xI
#320819
xA
xN
#320903
xB
#320904
xC
#320914
x>
#321843
xM
#321856
xJ
#321968
xQ
#321970
xL
#321982
x]
#322212
x\
#322248
x_
#322354
xO
#322401
xT
#322418
xZ
#322432
xR
#322438
xY
#322440
xX
x[
#322579
xV
#322710
x^
#322727
xS
#322950
xW
#325252
x6
x&
#325291
x5
x%
#325295
x9
x)
#325406
x:
x*
#325477
x8
x(
#325506
x<
x,
#325685
x;
x+
#325803
x4
x$
#325819
x7
x'
