2025-1/cd/lab04/decoder/simulation/qsim/decoder.msim.vcd
$comment
	File created using the following command:
		vcd file decoder.msim.vcd -direction
$end
$date
	Fri Apr 11 13:57:54 2025
$end
$version
	ModelSim Version 10.1d
$end
$timescale
	1ps
$end
$scope module decoder_vlg_vec_tst $end
$var reg 4 ! A [3:0] $end
$var wire 1 " S [15] $end
$var wire 1 # S [14] $end
$var wire 1 $ S [13] $end
$var wire 1 % S [12] $end
$var wire 1 & S [11] $end
$var wire 1 ' S [10] $end
$var wire 1 ( S [9] $end
$var wire 1 ) S [8] $end
$var wire 1 * S [7] $end
$var wire 1 + S [6] $end
$var wire 1 , S [5] $end
$var wire 1 - S [4] $end
$var wire 1 . S [3] $end
$var wire 1 / S [2] $end
$var wire 1 0 S [1] $end
$var wire 1 1 S [0] $end
$var wire 1 2 sampler $end
$scope module i1 $end
$var wire 1 3 gnd $end
$var wire 1 4 vcc $end
$var wire 1 5 unknown $end
$var tri1 1 6 devclrn $end
$var tri1 1 7 devpor $end
$var tri1 1 8 devoe $end
$var wire 1 9 S[15]~output_o $end
$var wire 1 : S[14]~output_o $end
$var wire 1 ; S[13]~output_o $end
$var wire 1 < S[12]~output_o $end
$var wire 1 = S[11]~output_o $end
$var wire 1 > S[10]~output_o $end
$var wire 1 ? S[9]~output_o $end
$var wire 1 @ S[8]~output_o $end
$var wire 1 A S[7]~output_o $end
$var wire 1 B S[6]~output_o $end
$var wire 1 C S[5]~output_o $end
$var wire 1 D S[4]~output_o $end
$var wire 1 E S[3]~output_o $end
$var wire 1 F S[2]~output_o $end
$var wire 1 G S[1]~output_o $end
$var wire 1 H S[0]~output_o $end
$var wire 1 I A[3]~input_o $end
$var wire 1 J A[0]~input_o $end
$var wire 1 K A[2]~input_o $end
$var wire 1 L A[1]~input_o $end
$var wire 1 M inst51~combout $end
$var wire 1 N inst50~combout $end
$var wire 1 O inst49~combout $end
$var wire 1 P inst47~combout $end
$var wire 1 Q inst46~combout $end
$var wire 1 R inst45~combout $end
$var wire 1 S inst44~combout $end
$var wire 1 T inst42~combout $end
$var wire 1 U inst41~combout $end
$var wire 1 V inst38~combout $end
$var wire 1 W inst39~combout $end
$var wire 1 X inst37~combout $end
$var wire 1 Y inst36~combout $end
$var wire 1 Z inst35~combout $end
$var wire 1 [ inst31~combout $end
$upscope $end
$upscope $end
$enddefinitions $end
#0
$dumpvars
b0 !
x1
x0
x/
x.
0-
x,
x+
x*
x)
x(
x'
x&
x%
x$
x#
x"
x2
03
14
x5
16
17
18
x9
x:
x;
x<
x=
x>
x?
x@
xA
xB
xC
0D
xE
xF
xG
xH
0I
0J
0K
0L
xM
xN
xO
xP
xQ
xR
xS
xT
xU
xV
xW
xX
xY
xZ
x[
$end
#2242
1U
#2252
1X
#2272
1Q
#2283
1W
#2285
1Z
#2286
1M
#2295
1R
#2296
1V
#2297
1N
#2299
1Y
#2316
1O
#2331
1S
#2428
1P
#2604
0[
#2617
1T
#4645
0C
0,
#4667
0F
0/
#4688
0?
0(
#4772
0E
0.
#4811
0=
0&
#4898
0A
0*
#4928
0:
0#
#4973
0B
0+
#4976
0G
00
#4987
0>
0'
#5090
0<
0%
#5094
09
0"
#5286
0@
0)
#5319
0;
0$
#5397
1H
11
#40000
b1000 !
b1010 !
02
#40670
1I
#40676
1L
#42853
1[
#43074
0R
#45643
0H
01
#45779
1>
1'
#80000
b1110 !
b1111 !
12
#80670
1K
1J
#82734
1R
#82923
0M
#85426
0>
0'
#85733
19
1"
